cpu/alu/alu.sim/sim_1/behav/xsim/simulate.log
Vivado Simulator 2020.2
Time resolution is 1 ps
ALU_ADD:
    code: 0x11, op1: 0x00000022, op2: 0x00000037
    signal == value
    signal == value
ALU_ADD test passed

ALU_SUB:
    code: 0x12, op1: 0x00000037, op2: 0x00000038
    signal == value
    signal == value
ALU_SUB test passed

ALU_SLT:
    code: 0x13, op1: 0xfeedface, op2: 0xbadcab1e
    signal == value
    signal == value
ALU_SLT test passed

ALU_SLTU:
    code: 0x14, op1: 0xbadcab1e, op2: 0xfeedface
    signal == value
    signal == value
ALU_SLTU test passed

ALU_XOR:
    code: 0x15, op1: 0xbadcab1e, op2: 0xfeedface
    signal == value
    signal == value
ALU_XOR test passed

ALU_OR:
    code: 0x16, op1: 0xbadcab1e, op2: 0xfeedface
    signal == value
    signal == value
ALU_OR test passed

ALU_AND:
    code: 0x17, op1: 0xbadcab1e, op2: 0xfeedface
    signal == value
    signal == value
ALU_AND test passed

ALU_SLL:
    code: 0x18, op1: 0xfeedface, op2: 0x0000040c
    signal == value
    signal == value
ALU_SLL test passed

ALU_SRL:
    code: 0x19, op1: 0xdeaddead, op2: 0x00000010
    signal == value
    signal == value
ALU_SRL test passed

ALU_SRA:
    code: 0x1a, op1: 0xdeaddead, op2: 0x00000010
    signal == value
    signal == value
ALU_SRA test passed

ALU_JAL:
    code: 0x01, op1: 0xdeadbeef, op2: 0x00040000
    signal == value
    signal == value
ALU_JAL test passed

ALU_JALR:
    code: 0x02, op1: 0xdeadbeef, op2: 0x00050000
    signal == value
    signal == value
ALU_JALR test passed

ALU_BEQ-1:
    code: 0x03, op1: 0xbaadf00d, op2: 0xbaadcafe
    signal == value
    signal == value
ALU_BEQ-1 test passed

ALU_BEQ-2:
    code: 0x03, op1: 0xbaadf00d, op2: 0xbaadf00d
    signal == value
    signal == value
ALU_BEQ-2 test passed

ALU_BNE:
    code: 0x04, op1: 0xbaadf00d, op2: 0xbaadf00d
    signal == value
    signal == value
ALU_BNE test passed

ALU_BLT-1:
    code: 0x05, op1: 0x00000100, op2: 0x00000123
    signal == value
    signal == value
ALU_BLT-1 test passed

ALU_BLT-2:
    code: 0x05, op1: 0x00000100, op2: 0xfee1dead
    signal == value
    signal == value
ALU_BLT-2 test passed

ALU_BLTU-1:
    code: 0x07, op1: 0x00000100, op2: 0xfee1dead
    signal == value
    signal == value
ALU_BLTU-1 test passed

ALU_BLTU-2:
    code: 0x07, op1: 0xffffffff, op2: 0xfee1dead
    signal == value
    signal == value
ALU_BLTU-2 test passed

ALU_BGE-1:
    code: 0x06, op1: 0x00000100, op2: 0x00000123
    signal == value
    signal == value
ALU_BGE-1 test passed

ALU_BGE-2:
    code: 0x06, op1: 0x00000100, op2: 0xfee1dead
    signal == value
    signal == value
ALU_BGE-2 test passed

ALU_BGEU-1:
    code: 0x08, op1: 0x00000100, op2: 0xfee1dead
    signal == value
    signal == value
ALU_BGEU-1 test passed

ALU_BGEU-2:
    code: 0x08, op1: 0xffffffff, op2: 0xfee1dead
    signal == value
    signal == value
ALU_BGEU-2 test passed

ALU_LB:
    code: 0x09, op1: 0x00000001, op2: 0x00000001
    signal == value
    signal == value
ALU_LB test passed

ALU_LH:
    code: 0x0a, op1: 0x00000001, op2: 0x00000002
    signal == value
    signal == value
ALU_LH test passed

ALU_LW:
    code: 0x0b, op1: 0x00000002, op2: 0x00000003
    signal == value
    signal == value
ALU_LW test passed

ALU_LBU:
    code: 0x0c, op1: 0x00000003, op2: 0x00000005
    signal == value
    signal == value
ALU_LBU test passed

ALU_LHU:
    code: 0x0d, op1: 0x00000005, op2: 0x00000008
    signal == value
    signal == value
ALU_LHU test passed

ALU_SB:
    code: 0x0e, op1: 0x00000008, op2: 0x0000000d
    signal == value
    signal == value
ALU_SB test passed

ALU_SH:
    code: 0x0f, op1: 0x0000000d, op2: 0x00000015
    signal == value
    signal == value
ALU_SH test passed

ALU_SW:
    code: 0x10, op1: 0x00000015, op2: 0x00000022
    signal == value
    signal == value
ALU_SW test passed

ALU_LUI:
    code: 0x00, op1: 0x0000000a, op2: 0x004d2000
    signal == value
    signal == value
ALU_LUI test passed

all ALU-tests passed!
